edquant | EDH 7916: Contemporary Research in Higher Education
…
To choose variables, either when making a new data frame or dropping
them, use select(). Like the other {dplyr} functions we’ll use,
the first argument select() takes is the data frame (or tibble)
object. After that, we list the column names we want to keep.

Since we don’t want to overwrite our original data in memory, we’ll
create an new object called df_tmp)

## select
df_tmp <- select(df, stu_id, x1stuedexpct, x1paredexpct, x1region)

## show
df_tmp

# A tibble: 23,503 x 4
   stu_id x1stuedexpct x1paredexpct x1region
    <dbl>        <dbl>        <dbl>    <dbl>
 1  10001            8            6        2
 2  10002           11            6        1
 3  10003           10           10        4
 4  10004           10           10        3
 5  10005            6           10        3
 6  10006           10            8        3
 7  10007            8           11        1
 8  10008            8            6        1
 9  10009           11           11        3
10  10010            8            6        1
# … with 23,493 more rows
…
Using this logic within mutate(), we can test whether each student’s
degree expectation is higher than that of their parent; if true, we’ll
put the student’s value into the new variable — if false, we’ll put the
parent’s value into the new variable.

## mutate (notice that we use df_tmp now)
df_tmp <- mutate(df_tmp, high_expct = ifelse(x1stuedexpct > x1paredexpct, # test
                                             x1stuedexpct,                # if TRUE
                                             x1paredexpct))               # if FALSE

## show
df_tmp

# A tibble: 23,503 x 5
   stu_id x1stuedexpct x1paredexpct x1region high_expct
    <dbl>        <dbl>        <dbl>    <dbl>      <dbl>
 1  10001            8            6        2          8
 2  10002           11            6        1         11
 3  10003           10           10        4         10
 4  10004           10           10        3         10
 5  10005            6           10        3         10
 6  10006           10            8        3         10
 7  10007            8           11        1         11
 8  10008            8            6        1          8
 9  10009           11           11        3         11
10  10010            8            6        1          8
# … with 23,493 more rows
…
How to handle missing values is a very important topic, one we could
spend all semester discussing. For now, we are just going to drop
observations with missing values; but be forewarned that how you handle
missing values can have real ramifications for the quality of your final
results.

## filter out missing values
df_tmp <- filter(df_tmp, high_expct != -8)

## notice the number of rows now:
## do they equal the first number minus the number of NAs from our table command?
df_tmp

# A tibble: 21,771 x 5
   stu_id x1stuedexpct x1paredexpct x1region high_expct
    <dbl>        <dbl>        <dbl>    <dbl>      <dbl>
 1  10001            8            6        2          8
 2  10002           11            6        1         11
 3  10003           10           10        4         10
 4  10004           10           10        3         10
 5  10005            6           10        3         10
 6  10006           10            8        3         10
 7  10007            8           11        1         11
 8  10008            8            6        1          8
 9  10009           11           11        3         11
10  10010            8            6        1          8
# … with 21,761 more rows
…
   1    2    3    4 
3383 5779 8846 3763 

We’re not missing any census data, which is good. To calculate our
average expectations, we need to use the group_by() function. This
function allows to set groups and perform other {dpylr} operations
within those groups. Right now, we’ll use it to get our summary.

## get expectations average within region
df_tmp <- group_by(df_tmp, x1region)

## show grouping
df_tmp

# A tibble: 21,771 x 5
# Groups:   x1region [4]
   stu_id x1stuedexpct x1paredexpct x1region high_expct
    <dbl>        <dbl>        <dbl>    <dbl>      <dbl>
 1  10001            8            6        2          8
 2  10002           11            6        1         11
 3  10003           10           10        4         10
 4  10004           10           10        3         10
 5  10005            6           10        3         10
 6  10006           10            8        3         10
 7  10007            8           11        1         11
 8  10008            8            6        1          8
 9  10009           11           11        3         11
10  10010            8            6        1          8
# … with 21,761 more rows
…
Rewriting our analysis using pipes

Returning to our example above, let’s connect the steps using pipes. To
start off, we can pipe our data to the select() command:

## pipe the original data frame into select
df_tmp_2 <- df %>%
    select(stu_id, x1stuedexpct, x1paredexpct, x1region)

## show
df_tmp_2

# A tibble: 23,503 x 4
   stu_id x1stuedexpct x1paredexpct x1region
    <dbl>        <dbl>        <dbl>    <dbl>
 1  10001            8            6        2
 2  10002           11            6        1
 3  10003           10           10        4
 4  10004           10           10        3
 5  10005            6           10        3
 6  10006           10            8        3
 7  10007            8           11        1
 8  10008            8            6        1
 9  10009           11           11        3
10  10010            8            6        1
# … with 23,493 more rows
…
We can keep the chain going to our next step:

## same as before, but add mutate()
df_tmp_2 <- df %>%
    ## vars to select
    select(stu_id, x1stuedexpct, x1paredexpct, x1region) %>%
    ## vars to add
    mutate(high_expct = ifelse(x1stuedexpct > x1paredexpct, # test
                               x1stuedexpct,                # if TRUE
                               x1paredexpct))               # if FALSE

## show
df_tmp_2

# A tibble: 23,503 x 5
   stu_id x1stuedexpct x1paredexpct x1region high_expct
    <dbl>        <dbl>        <dbl>    <dbl>      <dbl>
 1  10001            8            6        2          8
 2  10002           11            6        1         11
 3  10003           10           10        4         10
 4  10004           10           10        3         10
 5  10005            6           10        3         10
 6  10006           10            8        3         10
 7  10007            8           11        1         11
 8  10008            8            6        1          8
 9  10009           11           11        3         11
10  10010            8            6        1          8
# … with 23,493 more rows
…
