edquant | EDH 7916: Contemporary Research in Higher Education
…
Finding: str_detect()

So far, we’ve filtered data using dplyr’s filter() verb. When
matching a string, we have used == (or != for negative match). For
example, if we wanted to limit our data to only those institutions in
Florida, we could filter using the stabbr column:

## filter using state abbreviation (not saving, just viewing)
df %>%
    filter(stabbr == "FL")

## # A tibble: 316 × 59
##    unitid instnm    addr  city  stabbr zip    fips obereg chfnm chftitle gentele
##     <dbl> <chr>     <chr> <chr> <chr>  <chr> <dbl>  <dbl> <chr> <chr>      <dbl>
##  1 132268 Wyotech-… 470 … Ormo… FL     32174    12      5 Stev… Preside… 3.86e12
##  2 132338 The Art … 1799… Fort… FL     3331…    12      5 Char… Preside… 9.54e13
##  3 132374 Atlantic… 4700… Coco… FL     3306…    12      5 Robe… Director 7.54e 9
##  4 132408 The Bapt… 5400… Grac… FL     32440    12      5 Thom… Preside… 8.50e 9
##  5 132471 Barry Un… 1130… Miami FL     3316…    12      5 Sist… Preside… 8.01e 9
##  6 132523 Gooding … 615 … Pana… FL     32401    12      5 Dr. … CRNA Ph… 8.51e 9
##  7 132602 Bethune-… 640 … Dayt… FL     3211…    12      5 Dr T… Preside… 3.86e 9
##  8 132657 Lynn Uni… 3601… Boca… FL     3343…    12      5 Kevi… Preside… 5.61e 9
##  9 132666 Bradento… 5505… Brad… FL     34209    12      5 A. P… CEO      9.42e 9
## 10 132675 Bradford… 609 … Star… FL     32091    12      5 Rand… Director 9.05e 9
## # … with 306 more rows, and 48 more variables: ein <chr>, opeid <chr>,
## #   opeflag <dbl>, webaddr <chr>, adminurl <chr>, faidurl <chr>, applurl <chr>,
## #   sector <dbl>, iclevel <dbl>, control <dbl>, hloffer <dbl>, ugoffer <dbl>,
## #   groffer <dbl>, fpoffer <dbl>, hdegoffr <dbl>, deggrant <dbl>, hbcu <dbl>,
## #   hospital <dbl>, medical <dbl>, tribal <dbl>, locale <dbl>, openpubl <dbl>,
## #   act <chr>, newid <dbl>, deathyr <dbl>, closedat <chr>, cyactive <dbl>,
## #   postsec <dbl>, pseflag <dbl>, pset4flg <dbl>, rptmth <dbl>, ialias <chr>, …

This works well because the stabbr column, even though it uses
strings, is regular. But what happens when the strings aren’t so
regular? For example, let’s look the different titles chief college
administrators take.

## see first few rows of distinct chief titles
df %>%
    distinct(chftitle)

## # A tibble: 556 × 1
##    chftitle          
##    <chr>             
##  1 Commandant        
##  2 President         
##  3 Chancellor        
##  4 Interim President 
##  5 CEO               
##  6 Acting President  
##  7 Director          
##  8 President/CEO     
##  9 Interim Chancellor
## 10 President/COO     
## # … with 546 more rows

We find over 500 unique titles. Just looking at the first 10 rows, we
see that some titles are pretty similar — President vs. CEO
vs. President/CEO — but not exactly the same. Let’s look again,
but this time get counts of each distinct title and arrange from most
common to least.

## return the most common titles
df %>%
    ## get counts of each type
    count(chftitle) %>%
    ## arrange in descending order so we see most popular at top
    arrange(desc(n))

## # A tibble: 556 × 2
##    chftitle               n
##    <chr>              <int>
##  1 President           3840
##  2 Director             560
##  3 Chancellor           265
##  4 Executive Director   209
##  5 Owner                164
##  6 Campus President     116
##  7 Superintendent       105
##  8 CEO                   90
##  9 <NA>                  85
## 10 Interim President     75
## # … with 546 more rows
…
## how many use some form of the title president?
df %>%
    ## still starting with our count
    count(chftitle) %>%
    ## ...but keeping only those titles that contain "President"
    filter(str_detect(chftitle, "President")) %>%
    ## arranging as before
    arrange(desc(n))

## # A tibble: 173 × 2
##    chftitle              n
##    <chr>             <int>
##  1 President          3840
##  2 Campus President    116
##  3 Interim President    75
##  4 President/COO        47
##  5 President/CEO        46
##  6 School President     31
##  7 Vice President       29
##  8 President and CEO    17
##  9 College President    15
## 10 President & CEO      14
## # … with 163 more rows
…
In our first case, we can match strings that have a capital P
President or lowercase p president using square brackets
([]). If we want either “P” or “p”, then we can use the regex,
[Pp], in place of the first character: "[Pp]resident". This will
match either "President" or "president".

## solution 1: look for either P or p
df %>%
    count(chftitle) %>%
    filter(str_detect(chftitle, "[Pp]resident")) %>%
    arrange(desc(n))

## # A tibble: 175 × 2
##    chftitle              n
##    <chr>             <int>
##  1 President          3840
##  2 Campus President    116
##  3 Interim President    75
##  4 President/COO        47
##  5 President/CEO        46
##  6 School President     31
##  7 Vice President       29
##  8 President and CEO    17
##  9 College President    15
## 10 President & CEO      14
## # … with 165 more rows
…
We won’t change the values in chftitle permanently — only while
filtering. To compare apples to apples (rather than "Apples" to
"apples"), we’ll wrap our column name with the function
str_to_lower(), which will make character lowercase, and match using
lowercase "president".

## solution 2: make everything lowercase so that case doesn't matter
df %>%
    count(chftitle) %>%
    filter(str_detect(str_to_lower(chftitle), "president")) %>%
    arrange(desc(n))

## # A tibble: 177 × 2
##    chftitle              n
##    <chr>             <int>
##  1 President          3840
##  2 Campus President    116
##  3 Interim President    75
##  4 President/COO        47
##  5 President/CEO        46
##  6 School President     31
##  7 Vice President       29
##  8 President and CEO    17
##  9 College President    15
## 10 President & CEO      14
## # … with 167 more rows
…
Replace using string position: str_sub()

In addition to filtering data, we sometimes need to create new
variables from pieces of exiting variables. For example, let’s look at
the zip code values that are included in the file.

## show first few zip code values
df %>%
    select(unitid, zip)

## # A tibble: 7,052 × 2
##    unitid zip       
##     <dbl> <chr>     
##  1 100636 36112-6613
##  2 100654 35762     
##  3 100663 35294-0110
##  4 100690 36117-3553
##  5 100706 35899     
##  6 100724 36101-0271
##  7 100733 35401     
##  8 100751 35487-0166
##  9 100760 35010     
## 10 100812 35611     
## # … with 7,042 more rows
…
In our case, we want the first 5 digits so we should start == 1 and
end == 5:

## pull out first 5 digits of zip code
df <- df %>%
    mutate(zip5 = str_sub(zip, start = 1, end = 5))

## show (use select() to subset so we can set new columns)
df %>%
    select(unitid, zip, zip5)

## # A tibble: 7,052 × 3
##    unitid zip        zip5 
##     <dbl> <chr>      <chr>
##  1 100636 36112-6613 36112
##  2 100654 35762      35762
##  3 100663 35294-0110 35294
##  4 100690 36117-3553 36117
##  5 100706 35899      35899
##  6 100724 36101-0271 36101
##  7 100733 35401      35401
##  8 100751 35487-0166 35487
##  9 100760 35010      35010
## 10 100812 35611      35611
## # … with 7,042 more rows
…
Let’s try it on the data.

## drop last four digits of extended zip code if they exist
df <- df %>%
    mutate(zip5_v2 = str_replace(zip, "([0-9]+)(-[0-9]+)?", "\\1"))

## show (use select() to subset so we can set new columns)
df %>%
    select(unitid, zip, zip5, zip5_v2)

## # A tibble: 7,052 × 4
##    unitid zip        zip5  zip5_v2
##     <dbl> <chr>      <chr> <chr>  
##  1 100636 36112-6613 36112 36112  
##  2 100654 35762      35762 35762  
##  3 100663 35294-0110 35294 35294  
##  4 100690 36117-3553 36117 36117  
##  5 100706 35899      35899 35899  
##  6 100724 36101-0271 36101 36101  
##  7 100733 35401      35401 35401  
##  8 100751 35487-0166 35487 35487  
##  9 100760 35010      35010 35010  
## 10 100812 35611      35611 35611  
## # … with 7,042 more rows
…
R makes this easier by having special time-based data types that will
keep track of these issues for us and allow us to work with dates
almost as we do with regular numbers.

In our IPEDS data set, we can see that few institutions closed in 2007
and 2008. We’ll limit our next analyses to these institutions.

## subset to schools who closed during this period
df <- df %>%
    filter(closedat != -2)

## show first few rows
df %>% select(unitid, instnm, closedat)

## # A tibble: 83 × 3
##    unitid instnm                                                  closedat
##     <dbl> <chr>                                                   <chr>   
##  1 103440 Sheldon Jackson College                                 6/29/07 
##  2 104522 DeVoe College of Beauty                                 3/29/08 
##  3 105242 Mundus Institute                                        Sep-07  
##  4 105880 Long Technical College-East Valley                      3/31/07 
##  5 119711 New College of California                               Jan-08  
##  6 136996 Ross Medical Education Center                           7/31/07 
##  7 137625 Suncoast II the Tampa Bay School of Massage Therapy LLC 5/31/08 
##  8 141583 Hawaii Business College                                 Sep-07  
##  9 150127 Ball Memorial Hospital School of Radiologic Technology  May-07  
## 10 160144 Pat Goins Shreveport Beauty School                      3/1/08  
## # … with 73 more rows
…
We can use the lubridate command mdy() to make a new variable that
contains the same information, but in a format that R recognizes as a
date.

## create a new close date column 
df <- df %>%
    mutate(closedat_dt = mdy(closedat))

## Warning: 35 failed to parse.

## show
df %>% select(starts_with("close"))

## # A tibble: 83 × 2
##    closedat closedat_dt
##    <chr>    <date>     
##  1 6/29/07  2007-06-29 
##  2 3/29/08  2008-03-29 
##  3 Sep-07   NA         
##  4 3/31/07  2007-03-31 
##  5 Jan-08   NA         
##  6 7/31/07  2007-07-31 
##  7 5/31/08  2008-05-31 
##  8 Sep-07   NA         
##  9 May-07   NA         
## 10 3/1/08   2008-03-01 
## # … with 73 more rows
…
One solution is to add in a fake day for the ones that didn’t parse
and then convert using mdy(). We’ll use regular expressions with an
str_replace().

## convert MON-YYYY to MON-01-YYYY
df <- df %>%
    mutate(closedat_fix = str_replace(closedat, "-", "-01-"),
           closedat_fix_dt = mdy(closedat_fix))

## Warning: 7 failed to parse.

## show
df %>% select(starts_with("close"))                                

## # A tibble: 83 × 4
##    closedat closedat_dt closedat_fix closedat_fix_dt
##    <chr>    <date>      <chr>        <date>         
##  1 6/29/07  2007-06-29  6/29/07      2007-06-29     
##  2 3/29/08  2008-03-29  3/29/08      2008-03-29     
##  3 Sep-07   NA          Sep-01-07    2007-09-01     
##  4 3/31/07  2007-03-31  3/31/07      2007-03-31     
##  5 Jan-08   NA          Jan-01-08    2008-01-01     
##  6 7/31/07  2007-07-31  7/31/07      2007-07-31     
##  7 5/31/08  2008-05-31  5/31/08      2008-05-31     
##  8 Sep-07   NA          Sep-01-07    2007-09-01     
##  9 May-07   NA          May-01-07    2007-05-01     
## 10 3/1/08   2008-03-01  3/1/08       2008-03-01     
## # … with 73 more rows
…
## add columns for
## - year
## - month
## - day
## - day of week (dow)
df <- df %>%
    mutate(close_year = year(closedat_fix_dt),
           close_month = month(closedat_fix_dt),
           close_day = day(closedat_fix_dt),
           close_dow = wday(closedat_fix_dt, label = TRUE))
## show
df %>%
    select(closedat_fix_dt, close_year, close_month, close_day, close_dow)

## # A tibble: 83 × 5
##    closedat_fix_dt close_year close_month close_day close_dow
##    <date>               <dbl>       <dbl>     <int> <ord>    
##  1 2007-06-29            2007           6        29 Fri      
##  2 2008-03-29            2008           3        29 Sat      
##  3 2007-09-01            2007           9         1 Sat      
##  4 2007-03-31            2007           3        31 Sat      
##  5 2008-01-01            2008           1         1 Tue      
##  6 2007-07-31            2007           7        31 Tue      
##  7 2008-05-31            2008           5        31 Sat      
##  8 2007-09-01            2007           9         1 Sat      
##  9 2007-05-01            2007           5         1 Tue      
## 10 2008-03-01            2008           3         1 Sat      
## # … with 73 more rows
…
## how long since the institution closed
## - as of 1 January 2020
## - as of today
df <- df %>%
    mutate(time_since_close_jan = ymd("2020-01-01") - closedat_fix_dt,
           time_since_close_now = today() - closedat_fix_dt)

## show
df %>% select(starts_with("time_since_close"))

## # A tibble: 83 × 2
##    time_since_close_jan time_since_close_now
##    <drtn>               <drtn>              
##  1 4569 days            5329 days           
##  2 4295 days            5055 days           
##  3 4505 days            5265 days           
##  4 4659 days            5419 days           
##  5 4383 days            5143 days           
##  6 4537 days            5297 days           
##  7 4232 days            4992 days           
##  8 4505 days            5265 days           
##  9 4628 days            5388 days           
## 10 4323 days            5083 days           
## # … with 73 more rows
…
