edquant | EDH 7916: Contemporary Research in Higher Education
…
## need to set up data
plot_df <- df_hs %>%
  ## select the columns we need
  select(x1paredu, x1txmtscor) %>%
  ## can't plot NA so will drop
  drop_na() %>%
  ## create new variable that == 1 if parents have any college
  mutate(pared_coll = ifelse(x1paredu >= 3, 1, 0)) %>%
  ## drop (using negative sign) the original variable we don't need now
  select(-x1paredu) 

## show
plot_df

## # A tibble: 16,429 × 2
##    x1txmtscor pared_coll
##    <dbl+lbl>       <dbl>
##  1 59.4                1
##  2 47.7                1
##  3 64.2                1
##  4 49.3                1
##  5 62.6                1
##  6 58.1                1
##  7 49.5                0
##  8 54.6                1
##  9 53.2                0
## 10 63.8                1
## # ℹ 16,419 more rows
…
Line graph

We can also make line graphs with plotly. For these, we’ll once again
use our school test score data. We won’t go through all the iterations
in the first graphing lesson, but know that you can convert those to
interactive figures as well.

We’ll begin by showing our data (which is wide-ish) and creating a
fully long version of the data.

## show test score data
df_ts

## # A tibble: 24 × 5
##    school        year  math  read science
##    <chr>        <dbl> <dbl> <dbl>   <dbl>
##  1 Bend Gate     1980   515   281     808
##  2 Bend Gate     1981   503   312     814
##  3 Bend Gate     1982   514   316     816
##  4 Bend Gate     1983   491   276     793
##  5 Bend Gate     1984   502   310     788
##  6 Bend Gate     1985   488   280     789
##  7 East Heights  1980   501   318     782
##  8 East Heights  1981   487   323     813
##  9 East Heights  1982   496   294     818
## 10 East Heights  1983   497   306     795
## # ℹ 14 more rows
…
## show
df_ts_long

## # A tibble: 72 × 7
##    school        year test    score score_std score_year_one score_std_sch
##    <chr>        <dbl> <chr>   <dbl>     <dbl>          <dbl>         <dbl>
##  1 Bend Gate     1980 math      515     1.40             515             0
##  2 Bend Gate     1980 read      281    -0.863            281             0
##  3 Bend Gate     1980 science   808     0.759            808             0
##  4 East Heights  1980 math      501     0.115            501             0
##  5 East Heights  1980 read      318     1.34             318             0
##  6 East Heights  1980 science   782    -0.735            782             0
##  7 Niagara       1980 math      514     1.31             514             0
##  8 Niagara       1980 read      292    -0.208            292             0
##  9 Niagara       1980 science   787    -0.448            787             0
## 10 Spottsville   1980 math      498    -0.161            498             0
## # ℹ 62 more rows
…
