edquant | EDH 7916: Contemporary Research in Higher Education
…
Line graph

When you want to show changes in one variable as a function of another
variable, e.g., changes in test scores over time, then a line graph
is often a good choice. Since our hsls_small data is
cross-sectional, we’ll shift to using our school test score
data. Remember that the test score data show three sets of test scores
(math, science, and reading) for four schools over a period of six
years. This data frame is long in year, but wide in test type. It
looks like this:

## show test score data
df_ts

## # A tibble: 24 × 5
##    school        year  math  read science
##    <chr>        <dbl> <dbl> <dbl>   <dbl>
##  1 Bend Gate     1980   515   281     808
##  2 Bend Gate     1981   503   312     814
##  3 Bend Gate     1982   514   316     816
##  4 Bend Gate     1983   491   276     793
##  5 Bend Gate     1984   502   310     788
##  6 Bend Gate     1985   488   280     789
##  7 East Heights  1980   501   318     782
##  8 East Heights  1981   487   323     813
##  9 East Heights  1982   496   294     818
## 10 East Heights  1983   497   306     795
## # … with 14 more rows
…
## reshape data long
df_ts_long <- df_ts %>%
    pivot_longer(cols = c("math","read","science"), # cols to pivot long
                 names_to = "test",                 # where col names go
                 values_to = "score")               # where col values go

## show
df_ts_long

## # A tibble: 72 × 4
##    school     year test    score
##    <chr>     <dbl> <chr>   <dbl>
##  1 Bend Gate  1980 math      515
##  2 Bend Gate  1980 read      281
##  3 Bend Gate  1980 science   808
##  4 Bend Gate  1981 math      503
##  5 Bend Gate  1981 read      312
##  6 Bend Gate  1981 science   814
##  7 Bend Gate  1982 math      514
##  8 Bend Gate  1982 read      316
##  9 Bend Gate  1982 science   816
## 10 Bend Gate  1983 math      491
## # … with 62 more rows
…
