edquant | EDH 7916: Contemporary Research in Higher Education
…
## assume we're running this script from the ./scripts subdirectory
dat_dir <- file.path("..", "data")

Read in and inspect data

## ---------------------------------------------------------
## read in data
## ---------------------------------------------------------

df <- readRDS(file.path(dat_dir, "kmeans.RDS"))

## show
df

## # A tibble: 1,500 × 3
##        x     y     z
##    <dbl> <dbl> <dbl>
##  1 33.1  11.6  -16.0
##  2 -8.55  6.01  11.8
##  3 50.7  56.3   97.8
##  4  2.83 27.5   34.4
##  5 -4.66 20.0   25.1
##  6 -3.04 16.2   22.8
##  7 30.5  12.1  -14.3
##  8  7.08 25.3   25.6
##  9  1.33 20.1   17.6
## 10 -3.11 13.4   11.5
## # … with 1,490 more rows
…
