edquant | EDH 7916: Contemporary Research in Higher Education
…
                            replace = TRUE,
                            prob = c(rep(.09, 10), .1)),
             "sibage" = sample(c(seq(5,12,1), -98),
                               size = 100,
                               replace = TRUE,
                               prob = c(rep(.115, 8), .08)),
             "parage" = sample(c(seq(45,55,1), c(-98,-99)),
                               size = 100,
                               replace = TRUE,
                               prob = c(rep(.085, 11), c(.12, .12)))
             ) 
## show
df

## # A tibble: 100 × 4
##       id   age sibage parage
##    <int> <dbl>  <dbl>  <dbl>
##  1     1   -97    -98     50
##  2     2    12     10     51
##  3     3    18     12     45
##  4     4    18    -98     54
##  5     5    19      6     53
##  6     6    17     11    -99
##  7     7    12      9     45
##  8     8    11      7    -98
##  9     9    17     10     52
## 10    10    20    -98     49
## # … with 90 more rows
…
Now that the items are in a list, we can again use bind_rows(),
which, in addition to individual objects, can take a single list of
objects.

## bind our list to single data frame
df <- df_list %>%
    bind_rows()

## show
df

## # A tibble: 24 × 5
##    school        year  math  read science
##    <chr>        <dbl> <dbl> <dbl>   <dbl>
##  1 Bend Gate     1980   515   281     808
##  2 Bend Gate     1981   503   312     814
##  3 Bend Gate     1982   514   316     816
##  4 Bend Gate     1983   491   276     793
##  5 Bend Gate     1984   502   310     788
##  6 Bend Gate     1985   488   280     789
##  7 East Heights  1980   501   318     782
##  8 East Heights  1981   487   323     813
##  9 East Heights  1982   496   294     818
## 10 East Heights  1983   497   306     795
## # … with 14 more rows
…
  function := read_csv()

What’s nice about purrr functions is that they work directly with
other tidyverse functions via pipes, %>%. This bit of code
reproduces what the first loop did to read in and bind all files:

## use purrr::map() to read in all files; then pipe into bind rows
df <- map(files,
          ~ read_csv(.x, show_col_types = FALSE)) %>%
    bind_rows()

## show
df

## # A tibble: 24 × 5
##    school        year  math  read science
##    <chr>        <dbl> <dbl> <dbl>   <dbl>
##  1 Bend Gate     1980   515   281     808
##  2 Bend Gate     1981   503   312     814
##  3 Bend Gate     1982   514   316     816
##  4 Bend Gate     1983   491   276     793
##  5 Bend Gate     1984   502   310     788
##  6 Bend Gate     1985   488   280     789
##  7 East Heights  1980   501   318     782
##  8 East Heights  1981   487   323     813
##  9 East Heights  1982   496   294     818
## 10 East Heights  1983   497   306     795
## # … with 14 more rows
…
