edquant | EDH 7916: Contemporary Research in Higher Education
…
## assume we're running this script from the ./scripts subdirectory
df_col <- readRDS(file.path(rcpp_dir, "collegeloc.RDS"))
df_cbg <- readRDS(file.path(rcpp_dir, "cblocks.RDS"))

College locations

Here’s a quick peek at the college location data (around 7,600
institutions).

## college locations
df_col

## # A tibble: 7,647 × 5
##    unitid instnm                              fips5   lon   lat
##     <int> <chr>                               <chr> <dbl> <dbl>
##  1 100654 Alabama A & M University            01089 -86.6  34.8
##  2 100663 University of Alabama at Birmingham 01073 -86.8  33.5
##  3 100690 Amridge University                  01101 -86.2  32.4
##  4 100706 University of Alabama in Huntsville 01089 -86.6  34.7
##  5 100724 Alabama State University            01101 -86.3  32.4
##  6 100733 University of Alabama System Office 01125 -87.5  33.2
##  7 100751 The University of Alabama           01125 -87.5  33.2
##  8 100760 Central Alabama Community College   01123 -85.9  32.9
##  9 100812 Athens State University             01083 -87.0  34.8
## 10 100830 Auburn University at Montgomery     01101 -86.2  32.4
## # ℹ 7,637 more rows

Census block group locations

And here’s the census block group location data (around 217,000 block groups).

## census block group locations
df_cbg

## # A tibble: 217,740 × 4
##    fips11         pop   lon   lat
##    <chr>        <int> <dbl> <dbl>
##  1 010010201001   698 -86.5  32.5
##  2 010010201002  1214 -86.5  32.5
##  3 010010202001  1003 -86.5  32.5
##  4 010010202002  1167 -86.5  32.5
##  5 010010203001  2549 -86.5  32.5
##  6 010010203002   824 -86.5  32.5
##  7 010010204001   944 -86.4  32.5
##  8 010010204002  1937 -86.4  32.5
##  9 010010204003   935 -86.4  32.5
## 10 010010204004   570 -86.4  32.5
## # ℹ 217,730 more rows
…
