…
<!--html_preserve--><iframe src="plotly/plt_scatter_group.html"></iframe><!--/html_preserve-->

## Line graph



```r
## show test score data
df_ts
```

```
# A tibble: 24 x 5
   school        year  math  read science
   <chr>        <dbl> <dbl> <dbl>   <dbl>
 1 Bend Gate     1980   515   281     808
 2 Bend Gate     1981   503   312     814
 3 Bend Gate     1982   514   316     816
 4 Bend Gate     1983   491   276     793
 5 Bend Gate     1984   502   310     788
 6 Bend Gate     1985   488   280     789
 7 East Heights  1980   501   318     782
 8 East Heights  1981   487   323     813
 9 East Heights  1982   496   294     818
10 East Heights  1983   497   306     795
# … with 14 more rows
```
…
## show
df_ts_long
```

```
# A tibble: 72 x 7
   school        year test    score score_std score_year_one score_std_sch
   <chr>        <dbl> <chr>   <dbl>     <dbl>          <dbl>         <dbl>
 1 Bend Gate     1980 math      515     1.40             515             0
 2 Bend Gate     1980 read      281    -0.863            281             0
 3 Bend Gate     1980 science   808     0.759            808             0
 4 East Heights  1980 math      501     0.115            501             0
 5 East Heights  1980 read      318     1.34             318             0
 6 East Heights  1980 science   782    -0.735            782             0
 7 Niagara       1980 math      514     1.31             514             0
 8 Niagara       1980 read      292    -0.208            292             0
 9 Niagara       1980 science   787    -0.448            787             0
10 Spottsville   1980 math      498    -0.161            498             0
# … with 62 more rows
```
…
