…
```
# A tibble: 100 x 4
      id   age sibage parage
   <int> <dbl>  <dbl>  <dbl>
 1     1    12      6     52
 2     2    19      9     49
 3     3    15     12    -99
 4     4    18    -98     45
 5     5    19     10    -99
 6     6    19      8     47
 7     7    12      8     49
 8     8    13      6     46
 9     9    16      9     55
10    10   -97      6    -98
# … with 90 more rows
```
…
```r
## bind our list to single data frame
df <- df_list %>%
    bind_rows()

## show
df
```

```
# A tibble: 24 x 5
   school        year  math  read science
   <chr>        <dbl> <dbl> <dbl>   <dbl>
 1 Bend Gate     1980   515   281     808
 2 Bend Gate     1981   503   312     814
 3 Bend Gate     1982   514   316     816
 4 Bend Gate     1983   491   276     793
 5 Bend Gate     1984   502   310     788
 6 Bend Gate     1985   488   280     789
 7 East Heights  1980   501   318     782
 8 East Heights  1981   487   323     813
 9 East Heights  1982   496   294     818
10 East Heights  1983   497   306     795
# … with 14 more rows
```
…
```r
## use purrr::map() to read in all files; then pipe into bind rows
df <- map(files,
          ~ read_csv(.x)) %>%
    bind_rows()

## show
df
```

```
# A tibble: 24 x 5
   school        year  math  read science
   <chr>        <dbl> <dbl> <dbl>   <dbl>
 1 Bend Gate     1980   515   281     808
 2 Bend Gate     1981   503   312     814
 3 Bend Gate     1982   514   316     816
 4 Bend Gate     1983   491   276     793
 5 Bend Gate     1984   502   310     788
 6 Bend Gate     1985   488   280     789
 7 East Heights  1980   501   318     782
 8 East Heights  1981   487   323     813
 9 East Heights  1982   496   294     818
10 East Heights  1983   497   306     795
# … with 14 more rows
```
…
